^C:\USERS\АДРИАНА\DOCUMENTS\VISUAL STUDIO 2015\PROJECTS\ПРОКЛАДКА МАРШРУТА\FRACDRAWER\DEBUG\.NETFRAMEWORK,VERSION=V4.5.2.ASSEMBLYATTRIBUTES.OBJ|C:\USERS\АДРИАНА\DOCUMENTS\VISUAL STUDIO 2015\PROJECTS\ПРОКЛАДКА МАРШРУТА\FRACDRAWER\DEBUG\FACT.OBJ|C:\USERS\АДРИАНА\DOCUMENTS\VISUAL STUDIO 2015\PROJECTS\ПРОКЛАДКА МАРШРУТА\FRACDRAWER\DEBUG\MYFORM.OBJ
C:\USERS\Адриана\DOCUMENTS\VISUAL STUDIO 2015\PROJECTS\прокладка маршрута\DEBUG\FRACDRAWER.EXE
C:\USERS\АДРИАНА\DOCUMENTS\VISUAL STUDIO 2015\PROJECTS\ПРОКЛАДКА МАРШРУТА\DEBUG\FRACDRAWER.PDB
